…
### get_selic()

``` r
df1 <- get_selic(indicator = "Selic", first_date = Sys.Date() - 30)
#> 
#> Fetching [Selic] data from BCB-Olinda...
#> 
#> Found 576 observations!
df1
#> # A tibble: 576 × 10
#>    indicator date       meeting  mean median    sd   min   max n_respondents
#>    <chr>     <date>     <chr>   <dbl>  <dbl> <dbl> <dbl> <dbl>         <int>
#>  1 Selic     2022-08-05 R5/2024  8.91    9   0.854   7    10              14
#>  2 Selic     2022-08-05 R5/2024  8.91    9   0.854   7    10              14
#>  3 Selic     2022-08-05 R4/2024  8.87    9   0.894   7    10.5            30
#>  4 Selic     2022-08-05 R4/2024  9.12    9   0.987   7    12.2           107
#>  5 Selic     2022-08-05 R3/2024  9.34    9.5 0.949   7.5  11              33
#>  6 Selic     2022-08-05 R3/2024  9.52    9.5 0.991   7.5  12.5           112
#>  7 Selic     2022-08-05 R2/2024  9.81   10   0.894   8    11.5            33
#>  8 Selic     2022-08-05 R2/2024  9.97   10   0.980   7.5  12.8           112
#>  9 Selic     2022-08-05 R1/2024 10.4    10.4 0.934   8.5  13              34
#> 10 Selic     2022-08-05 R1/2024 10.4    10.5 0.968   8.5  13             113
#> # … with 566 more rows, and 1 more variable: basis <int>

df2 <- get_selic(indicator = "Selic", first_date = NULL, meeting = "R1/2024")
#> 
#> Fetching [Selic] data from BCB-Olinda...
#> 
#> Found 254 observations!
df2
#> # A tibble: 254 × 10
#>    indicator date       meeting  mean median    sd   min   max n_respondents
#>    <chr>     <date>     <chr>   <dbl>  <dbl> <dbl> <dbl> <dbl>         <int>
#>  1 Selic     2022-08-05 R1/2024  10.4   10.4 0.934  8.5   13              34
#>  2 Selic     2022-08-05 R1/2024  10.4   10.5 0.968  8.5   13             113
#>  3 Selic     2022-08-04 R1/2024  10.5   10.5 0.933  8.5   12.5            63
#>  4 Selic     2022-08-04 R1/2024  10.4   10.5 0.954  8.5   13             113
#>  5 Selic     2022-08-03 R1/2024  10.5   10.5 1.04   7.25  13              64
#>  6 Selic     2022-08-03 R1/2024  10.4   10.5 0.990  7.25  13             113
#>  7 Selic     2022-08-02 R1/2024  10.5   10.5 1.06   7.25  13              67
#>  8 Selic     2022-08-02 R1/2024  10.4   10.5 0.990  7.25  13             113
#>  9 Selic     2022-08-01 R1/2024  10.5   10.5 1.07   7.25  13              70
#> 10 Selic     2022-08-01 R1/2024  10.4   10.5 0.989  7.25  13             113
#> # … with 244 more rows, and 1 more variable: basis <int>
```
…
